{
  "type": "UserCollection",
  "properties": {
    "deleted": {
      "name": "deleted",
      "type": "boolean",
      "typeLabel": "boolean",
      "required": false,
      "id": "deleted",
      "order": 0
    },
    "mandant": {
      "name": "mandant",
      "type": "string",
      "typeLabel": "string",
      "required": true,
      "id": "mandant",
      "order": 1
    },
    "createdBy": {
      "name": "createdBy",
      "type": "string",
      "typeLabel": "string",
      "required": false,
      "id": "createdBy",
      "order": 2
    },
    "createdDate": {
      "name": "createdDate",
      "type": "number",
      "typeLabel": "number",
      "required": false,
      "id": "createdDate",
      "order": 3
    },
    "modifiedDate": {
      "name": "modifiedDate",
      "type": "number",
      "typeLabel": "number",
      "required": false,
      "id": "modifiedDate",
      "order": 4
    },
    "modifiedBy": {
      "name": "modifiedBy",
      "type": "string",
      "typeLabel": "string",
      "required": false,
      "id": "modifiedBy",
      "order": 5
    },
    "lastLoginDate": {
      "name": "lastLoginDate",
      "type": "number",
      "typeLabel": "number",
      "required": false,
      "id": "lastLoginDate",
      "order": 6
    },
    "parentID": {
      "name": "parentID",
      "type": "string",
      "typeLabel": "string",
      "required": false,
      "id": "parentID",
      "order": 7
    },
    "hash": {
      "name": "hash",
      "type": "string",
      "typeLabel": "string",
      "required": false,
      "id": "hash",
      "order": 8
    },
    "displayName": {
      "name": "displayName",
      "type": "string",
      "typeLabel": "string",
      "required": false,
      "id": "displayName",
      "order": 9
    },
    "mandanten": {
      "name": "mandanten",
      "type": "array",
      "typeLabel": "array",
      "required": false,
      "id": "mandanten",
      "order": 10
    },
    "roles": {
      "name": "roles",
      "type": "array",
      "typeLabel": "array",
      "required": false,
      "id": "roles",
      "order": 11
    },
    "sessionData": {
      "name": "sessionData",
      "type": "object",
      "typeLabel": "object",
      "required": false,
      "id": "sessionData",
      "order": 12
    },
    "templateID": {
      "name": "templateID",
      "type": "string",
      "typeLabel": "string",
      "required": false,
      "id": "templateID",
      "order": 13
    },
    "userToken": {
      "name": "userToken",
      "type": "string",
      "typeLabel": "string",
      "required": false,
      "id": "userToken",
      "order": 14
    }
  }
}
